0.01213823732971131,0.10009449732348544,1.0
0.0064032434973959676,0.40734417941465528,1.0
-0.65504156494418397,0.72845196068479268,0.0
1.3797194715487948,-0.34876867160748326,1.0
-0.48899199534406818,0.74598431043153579,0.0
0.18198332871647727,0.96915839319989727,0.0
0.055475084545690306,1.0193882068642441,0.0
-0.95183377680203096,0.037865397627798475,0.0
0.65211839585497933,-0.37851670272885596,1.0
0.1021957204450003,-0.20983224132886774,1.0
-0.61495747848685245,0.77479592934536967,0.0
0.6596425620539027,-0.43889867827546575,1.0
1.4707110825406495,-0.29225941188837579,1.0
0.90893963948030698,-0.54352446056947323,1.0
0.19665772109342822,-0.30769780043170913,1.0
-0.35039334662541433,0.71666224730190753,0.0
0.80849024121086421,0.68355433566946111,0.0
1.8480320410794329,0.37214428348798556,1.0
1.3198929922224873,-0.54819447896018625,1.0
0.042044172754273655,0.3526193114294911,1.0
0.362806448716393,0.89041954417110847,0.0
0.78026390215570884,0.97545253989580649,0.0
-0.968856055944604,0.25674332877643935,0.0
0.76311885372785881,0.36463969182644979,0.0
2.0101575568777039,0.19644578296900719,1.0
0.65863755261715995,-0.23418216125282537,1.0
0.88776914684263852,-0.41162295697425372,1.0
-0.098249899339285518,0.902086391148893,0.0
1.4381243015444207,-0.36351167462062928,1.0
0.90741908966175977,0.54122157532651471,0.0
1.682617701189292,-0.24523811746599072,1.0
1.7871112545658265,0.015859134834885297,1.0
1.2313925286127352,-0.52923634932322305,1.0
-0.29841936493079935,0.94489875217426567,0.0
-0.091448675694983328,0.057944368607310448,1.0
0.3759687345097652,-0.01154444340333885,1.0
-0.17499765796129416,1.0034361933843889,0.0
1.5724878159748321,-0.44583125610051794,1.0
0.60159974826359441,0.82033729987520843,0.0
-0.23999694935927113,0.94451368817727965,0.0
0.60809392213923052,0.66459889298888231,0.0
0.99742386954337203,0.25526801030917667,0.0
0.0047767491101197435,0.20189971404905468,1.0
-0.70199609044915023,0.91652409831017745,0.0
-0.47143555289337308,0.74651600479372071,0.0
1.22147272716376,-0.42866480275282021,1.0
0.76775369433375962,0.53793385264910443,0.0
0.066519577357937329,0.55591555669744153,1.0
0.57560242499617931,-0.40326596582093943,1.0
0.046482969893989548,-0.17356976472809726,1.0
0.11497800657541518,1.0120064132553017,0.0
1.9535612369825333,0.29364913365905609,1.0
-0.9086027555016194,0.4657995862672713,0.0
-0.83265143669910424,0.63983730073023659,0.0
0.12809953621764225,0.047600032998336053,1.0
1.164818905533838,-0.23533579369136387,1.0
1.7381068970319944,-0.0084948134148523299,1.0
0.6274677258525706,-0.39673199247133734,1.0
0.94384251909962347,0.14159494899982089,0.0
1.862349378323493,-0.025013356488829977,1.0
0.50470592939523529,0.85047577264164376,0.0
-0.55598425436071086,0.89991965337832469,0.0
-1.0296714402852694,-0.0029783339062213277,0.0
0.79843852239152702,-0.1061804539569714,1.0
-1.0773064173142255,0.18662924595043401,0.0
-0.063263198155841457,0.50829501116716558,1.0
0.28916521746001689,1.034607921522126,0.0
-0.71129267194398271,0.16110766151355782,0.0
1.2498112426686045,-0.41430051794234224,1.0
1.9239341936479641,0.3408089399693528,1.0
0.097438404234222967,0.25884655479936608,1.0
-0.12287300146954985,0.97293024449055887,0.0
1.6231301702222869,-0.14090321552715013,1.0
-0.99114980335390801,0.23551838117207446,0.0
1.8455766340272779,-0.053444247228242529,1.0
1.0999956174951935,0.16893630912144164,0.0
1.1194499602055679,0.079430197457102725,0.0
1.0488711629684315,-0.53661477864996077,1.0
1.0023293161080669,0.26420214100348599,0.0
0.21078154235112095,-0.094431627916484795,1.0
2.046826814644183,0.10382020551891774,1.0
0.42030761480090262,-0.3763532024809374,1.0
-0.9523024558354507,0.55828294786309351,0.0
0.98721322326474281,0.54020016784133251,0.0
0.99135128642316606,-0.43706352186417063,1.0
-0.99755768784257459,0.64012573060762901,0.0
0.62753625919299294,0.91007940003485599,0.0
-0.82334104534891572,0.011395055986757455,0.0
2.0415467505829583,0.50640835605242651,1.0
0.37363735982992602,0.70136250229073493,0.0
-0.92193540864879797,0.59434649146520913,0.0
0.93097403411826662,0.18812848481619959,0.0
0.76904308063866578,0.61213572164678376,0.0
0.27689899150681263,-0.23665157498290301,1.0
1.520973773419509,-0.50266320890406302,1.0
2.1358036231286488,0.38891938841101276,1.0
-0.22713556512680566,1.1148016701770804,0.0
2.1740827557845739,0.15506492738794231,1.0
0.43207171648059234,0.88893905933620965,0.0
0.64318735431115204,0.86016452444647296,0.0
